module gitlab.com/BobyMCbobs/go-http-server

go 1.22.5

require (
	github.com/NYTimes/gziphandler v1.1.1
	github.com/gorilla/mux v1.8.0
	github.com/joho/godotenv v1.5.1
	github.com/prometheus/client_golang v1.15.1
	github.com/rs/cors v1.11.0
	sigs.k8s.io/yaml v1.3.0
)

require (
	github.com/beorn7/perks v1.0.1 // indirect
	github.com/cespare/xxhash/v2 v2.2.0 // indirect
	github.com/golang/protobuf v1.5.3 // indirect
	github.com/matttproud/golang_protobuf_extensions v1.0.4 // indirect
	github.com/prometheus/client_model v0.4.0 // indirect
	github.com/prometheus/common v0.44.0 // indirect
	github.com/prometheus/procfs v0.10.0 // indirect
	golang.org/x/sys v0.8.0 // indirect
	google.golang.org/protobuf v1.30.0 // indirect
	gopkg.in/yaml.v2 v2.4.0 // indirect
)
